{
  "images" : [
    {
      "idiom" : "universal",
      "scale" : "1x",
      "filename" : "Screen Shot 2015-01-20 at 5.16.50 PM-1.png"
    },
    {
      "idiom" : "universal",
      "scale" : "2x",
      "filename" : "Screen Shot 2015-01-20 at 5.16.50 PM.png"
    },
    {
      "idiom" : "universal",
      "scale" : "3x"
    }
  ],
  "info" : {
    "version" : 1,
    "author" : "xcode"
  }
}